^C:\USERS\COETTINGER\DOCUMENTS\OF_V0.10.0RC1_VS2017_RELEASE\ADDONS\OFXXMLSETTINGSTOOL\EXAMPLE\EXAMPLEOFXXMLSETTINGSTOOL\ICON.RC
C:\USERS\COETTINGER\DOCUMENTS\OF_V0.9.8_VS_RELEASE\LIBS\OPENFRAMEWORKSCOMPILED\PROJECT\VS\ICON_DEBUG.ICO
^C:\LOCALSTUFF\OF_V0.10.0_VS2017_RELEASE\ADDONS\OFXXMLSETTINGSTOOL\EXAMPLE\EXAMPLEOFXXMLSETTINGSTOOL\ICON.RC
C:\LOCALSTUFF\OF_V0.10.0_VS2017_RELEASE\LIBS\OPENFRAMEWORKSCOMPILED\PROJECT\VS\ICON_DEBUG.ICO
